<?xml version="1.0" encoding="utf-8"?>
<!-- Generator: Adobe Illustrator 16.0.0, SVG Export Plug-In . SVG Version: 6.00 Build 0)  -->
<!DOCTYPE svg PUBLIC "-//W3C//DTD SVG 1.1//EN" "http://www.w3.org/Graphics/SVG/1.1/DTD/svg11.dtd">
<svg version="1.1" id="Layer_1" xmlns="http://www.w3.org/2000/svg" xmlns:xlink="http://www.w3.org/1999/xlink" x="0px" y="0px"
	 width="27.963px" height="27.963px" viewBox="0 0 27.963 27.963" enable-background="new 0 0 27.963 27.963" xml:space="preserve">
<path fill="#FFFFFF" d="M13.979,0C6.259,0,0,6.26,0,13.982c0,7.723,6.259,13.981,13.979,13.981c7.726,0,13.983-6.261,13.983-13.981
	C27.963,6.26,21.705,0,13.979,0z M21.103,16.06h-4.939v5.041h-4.3V16.06H6.861v-4.3h5.001v-4.9h4.3v4.9h4.938v4.3H21.103z"/>
</svg>
