<?xml version="1.0" encoding="UTF-8" standalone="no"?>
<svg
   xmlns:dc="http://purl.org/dc/elements/1.1/"
   xmlns:cc="http://creativecommons.org/ns#"
   xmlns:rdf="http://www.w3.org/1999/02/22-rdf-syntax-ns#"
   xmlns:svg="http://www.w3.org/2000/svg"
   xmlns="http://www.w3.org/2000/svg"
   viewBox="0 0 10.59875 10.771487"
   height="10.771487"
   width="10.59875"
   xml:space="preserve"
   version="1.1"
   id="svg2"><metadata
     id="metadata8"><rdf:RDF><cc:Work
         rdf:about=""><dc:format>image/svg+xml</dc:format><dc:type
           rdf:resource="http://purl.org/dc/dcmitype/StillImage" /></cc:Work></rdf:RDF></metadata><defs
     id="defs6"><clipPath
       id="clipPath16"
       clipPathUnits="userSpaceOnUse"><path
         id="path18"
         d="m 0,8.617 8.479,0 L 8.479,0 0,0 0,8.617 Z" /></clipPath></defs><g
     transform="matrix(1.25,0,0,-1.25,0,10.771487)"
     id="g10"><g
       id="g12"><g
         clip-path="url(#clipPath16)"
         id="g14"><g
           transform="translate(6.9209,4.3086)"
           id="g20"><path
             id="path22"
             style="fill:#434343;fill-opacity:1;fill-rule:nonzero;stroke:none"
             d="m 0,0 c 0,-1.48 -1.201,-2.681 -2.682,-2.681 -1.48,0 -2.681,1.201 -2.681,2.681 0,1.481 1.201,2.682 2.681,2.682 C -1.201,2.682 0,1.481 0,0" /></g></g></g></g></svg>