<?xml version="1.0" encoding="utf-8"?>
<!-- Generator: Adobe Illustrator 16.0.0, SVG Export Plug-In . SVG Version: 6.00 Build 0)  -->
<!DOCTYPE svg PUBLIC "-//W3C//DTD SVG 1.1//EN" "http://www.w3.org/Graphics/SVG/1.1/DTD/svg11.dtd">
<svg version="1.1" id="Layer_1" xmlns="http://www.w3.org/2000/svg" xmlns:xlink="http://www.w3.org/1999/xlink" x="0px" y="0px"
	 width="9.906px" height="13.386px" viewBox="0 0 9.906 13.386" enable-background="new 0 0 9.906 13.386" xml:space="preserve">
<g>
	<g>
		<g>
			<path fill="#353535" d="M9.878,11.415L8.507,6.839c-0.08-0.31-0.326-0.544-0.634-0.604l-0.361-0.07
				c0.023-0.055,0.047-0.113,0.063-0.151C7.597,5.956,7.62,5.9,7.64,5.857c0.086-0.18,0.058-0.361-0.022-0.403L7.61,5.451
				c-0.053-0.02-0.093-0.06-0.114-0.109L6.949,5.499C6.94,5.501,6.931,5.503,6.922,5.503c-0.04,0-0.077-0.024-0.093-0.063
				L6.822,5.421c0.189-0.285,0.346-0.607,0.449-0.966C7.35,4.377,7.406,4.248,7.475,4.074C7.493,4.03,7.509,3.988,7.522,3.961
				c0.137-0.291,0.09-0.605-0.103-0.758V3.174C7.415,1.634,7.218-0.008,4.929,0C2.623,0.008,2.435,1.581,2.44,3.19v0.029
				c-0.19,0.155-0.235,0.47-0.096,0.759c0.013,0.027,0.029,0.069,0.047,0.112c0.071,0.174,0.129,0.305,0.21,0.382
				c0.095,0.319,0.231,0.611,0.395,0.872l-0.021,0.05c-0.019,0.042-0.063,0.067-0.107,0.06L2.398,5.38
				C2.375,5.419,2.34,5.452,2.295,5.469L2.288,5.472C2.207,5.514,2.181,5.695,2.267,5.875C2.288,5.918,2.309,5.973,2.333,6.03
				c0.014,0.033,0.035,0.083,0.056,0.131L2.021,6.238C1.718,6.301,1.477,6.534,1.398,6.839l-1.371,4.575
				c-0.064,0.249-0.012,0.514,0.142,0.719c0.154,0.204,0.392,0.324,0.644,0.324h1.145L1.956,9.225l0.335-0.342h2.447L4.615,8.656
				c0.119,0.023,0.238,0.038,0.359,0.038c0.106,0,0.211-0.017,0.315-0.036L5.167,8.882H7.8l0.334,0.343v3.23h0.96
				c0.252,0,0.489-0.119,0.644-0.323C9.891,11.928,9.943,11.664,9.878,11.415z M6.641,4.975c-0.198,0.059-0.454,0.09-0.764,0.091
				C4.881,5.069,3.609,4.775,3.272,4.692L3.165,4.946C3.063,4.752,2.973,4.545,2.91,4.32C2.896,4.275,2.868,4.239,2.829,4.216
				C2.793,4.177,2.733,4.029,2.704,3.957c-0.02-0.048-0.039-0.095-0.057-0.131C2.575,3.673,2.596,3.518,2.666,3.483L2.672,3.48
				C2.71,3.466,2.741,3.438,2.76,3.405L3.16,3.468C3.198,3.473,3.235,3.452,3.25,3.416L3.502,2.82C3.789,2.89,4.87,3.14,5.717,3.137
				c0.263,0,0.481-0.026,0.649-0.077l0.16,0.396c0.014,0.033,0.046,0.054,0.079,0.054c0.007,0,0.015-0.001,0.022-0.003l0.465-0.134
				C7.112,3.414,7.146,3.448,7.19,3.464l0.007,0.002C7.266,3.502,7.289,3.656,7.215,3.81C7.198,3.847,7.18,3.894,7.16,3.943
				C7.131,4.015,7.073,4.162,7.038,4.201C7,4.224,6.97,4.261,6.959,4.306C6.888,4.568,6.786,4.811,6.664,5.031L6.641,4.975z
				 M2.625,9.567v2.891h4.84V9.567H2.625z M1.289,13.386h7.328v-0.618H1.289V13.386z"/>
		</g>
	</g>
</g>
</svg>
