<?xml version="1.0" encoding="utf-8"?>
<!-- Generator: Adobe Illustrator 16.0.0, SVG Export Plug-In . SVG Version: 6.00 Build 0)  -->
<!DOCTYPE svg PUBLIC "-//W3C//DTD SVG 1.1//EN" "http://www.w3.org/Graphics/SVG/1.1/DTD/svg11.dtd">
<svg version="1.1" id="Layer_1" xmlns="http://www.w3.org/2000/svg" xmlns:xlink="http://www.w3.org/1999/xlink" x="0px" y="0px"
	 width="36.42px" height="36.421px" viewBox="0 0 36.42 36.421" enable-background="new 0 0 36.42 36.421" xml:space="preserve">
<g>
	<circle fill="#4C4C4D" cx="18.21" cy="18.211" r="18.21"/>
	<g>
		<polygon fill="#FFFFFF" points="20.578,18.369 20.578,18.809 17.913,18.809 17.913,29.988 27.333,29.988 27.333,18.809 
			24.667,18.809 24.667,18.369 23.995,18.369 23.995,18.809 23.528,18.809 23.528,18.369 22.855,18.369 22.855,18.809 22.39,18.809 
			22.39,18.369 21.718,18.369 21.718,18.809 21.251,18.809 21.251,18.369 		"/>
		<g>
			<path fill="#FFFFFF" d="M13.129,10.619c1.054,0.737,2.505,0.482,3.244-0.57c0.484-0.692,0.538-1.556,0.221-2.276
				c-0.165-0.376-0.431-0.714-0.792-0.968c-0.908-0.636-2.112-0.532-2.9,0.184c-0.125,0.114-0.241,0.242-0.343,0.388
				C11.821,8.428,12.075,9.88,13.129,10.619z"/>
			<path fill="#FFFFFF" d="M13.099,20.761c0.146,0.696,0.277,1.649,0.277,2.82c0,1.324-0.168,2.929-0.678,4.767
				c-0.191,0.688,0.212,1.403,0.9,1.593c0.117,0.033,0.232,0.048,0.348,0.048c0.566,0,1.087-0.376,1.247-0.948
				c0.573-2.072,0.771-3.916,0.771-5.459c0-2.243-0.413-3.848-0.675-4.642c-0.107-0.786-0.086-1.626-0.011-2.438
				c0.921,0.472,2.151,0.808,3.754,0.808c0.011,0,0.021,0,0.032,0c0.457,0,0.828-0.371,0.828-0.828c0-0.044-0.004-0.087-0.012-0.13
				h1.294v0.925c0,0.361,0.293,0.655,0.654,0.655h1.798c0.361,0,0.654-0.294,0.654-0.655v-1.634h-3.106v0.295h-1.486
				c-0.152-0.174-0.375-0.284-0.624-0.284c-1.811-0.006-2.885-0.459-3.553-0.943c0.01-0.068,0.02-0.136,0.03-0.201
				c-0.12-0.018-0.238-0.039-0.355-0.064c-0.595-0.126-1.151-0.348-1.645-0.66c-0.289-0.183-0.456-0.486-0.478-0.805
				c-0.015-0.212,0.034-0.431,0.157-0.624c0.19-0.301,0.518-0.48,0.875-0.48c0.196,0,0.387,0.056,0.553,0.16
				c0.258,0.165,0.566,0.288,0.898,0.367c-0.187-0.486-0.529-0.861-0.996-0.956c-0.893-0.18-2.15,0.357-2.603,1.896
				c-0.609,2.117-0.699,3.482-0.327,5.768C11.883,20.187,12.464,20.611,13.099,20.761z"/>
			<path fill="#FFFFFF" d="M16.684,10.332c0,0.261,0.44,0.472,0.984,0.472c0.397,0,0.738-0.114,0.894-0.276h0.296
				c0-0.011,0-0.021,0.001-0.031c0-0.022-0.001-0.045-0.001-0.065c-0.001-0.07,0.004-0.14,0.017-0.207h-0.368
				C18.052,10.078,16.684,10.114,16.684,10.332z"/>
			<path fill="#FFFFFF" d="M21.187,10.527v-0.304H20.91c0.01,0.053,0.016,0.105,0.018,0.159c0.001,0.043,0.001,0.081,0.001,0.116
				c0,0.01,0,0.02,0,0.028H21.187z"/>
			<path fill="#FFFFFF" d="M14.916,14.164c0.216,0.061,0.437,0.106,0.658,0.138c0.264,0.039,0.53,0.059,0.795,0.06
				c1.043-0.002,2.092-0.289,2.933-0.929c0.835-0.628,1.42-1.662,1.42-2.905c0-0.009,0-0.019,0-0.028c0-0.034,0-0.071-0.001-0.11
				c-0.002-0.057-0.008-0.111-0.021-0.165c-0.085-0.376-0.426-0.653-0.826-0.644c-0.388,0.009-0.706,0.282-0.788,0.644
				c-0.016,0.065-0.023,0.134-0.021,0.202c0.001,0.022,0.001,0.047,0.001,0.073c0,0.01-0.001,0.02-0.001,0.028
				c-0.017,0.752-0.301,1.217-0.771,1.591c-0.478,0.37-1.19,0.589-1.924,0.586c-0.251,0.002-0.504-0.024-0.746-0.073
				c-0.399-0.08-0.774-0.224-1.084-0.421c-0.386-0.245-0.897-0.13-1.143,0.256c-0.074,0.115-0.114,0.243-0.125,0.371
				c-0.026,0.298,0.11,0.6,0.382,0.771h-0.001C14.045,13.855,14.472,14.039,14.916,14.164z"/>
			<path fill="#FFFFFF" d="M22.083,13.533c0.012-0.005-0.104,0.014-0.132,0.028c-0.413,0.205-0.234,0.529-0.123,0.885
				c0.045,0.146,0.008,0.265-0.061,0.393c-0.102,0.194,0.012,0.362,0.123,0.522c0.015,0.022,0.146-0.045,0.15-0.039
				c-0.093-0.134-0.187-0.266-0.159-0.434c0.02-0.123,0.107-0.212,0.117-0.343C22.029,14.153,21.546,13.8,22.083,13.533z"/>
			<path fill="#FFFFFF" d="M22.924,13.533c0.011-0.005-0.104,0.014-0.133,0.028c-0.413,0.205-0.234,0.529-0.124,0.885
				c0.046,0.146,0.009,0.266-0.059,0.393c-0.103,0.194,0.012,0.362,0.122,0.522c0.016,0.022,0.146-0.045,0.149-0.039
				c-0.092-0.134-0.186-0.266-0.158-0.434c0.02-0.123,0.108-0.212,0.118-0.343C22.87,14.153,22.386,13.8,22.924,13.533z"/>
			<path fill="#FFFFFF" d="M23.763,13.533c0.012-0.005-0.103,0.014-0.13,0.028c-0.415,0.205-0.236,0.529-0.125,0.885
				c0.045,0.146,0.007,0.265-0.061,0.393c-0.101,0.194,0.012,0.362,0.123,0.522c0.016,0.022,0.146-0.045,0.15-0.039
				c-0.092-0.134-0.187-0.266-0.159-0.434c0.02-0.123,0.108-0.212,0.118-0.343C23.709,14.153,23.226,13.8,23.763,13.533z"/>
		</g>
	</g>
</g>
</svg>
