<?xml version="1.0" encoding="utf-8"?>
<!-- Generator: Adobe Illustrator 16.0.0, SVG Export Plug-In . SVG Version: 6.00 Build 0)  -->
<!DOCTYPE svg PUBLIC "-//W3C//DTD SVG 1.1//EN" "http://www.w3.org/Graphics/SVG/1.1/DTD/svg11.dtd">
<svg version="1.1" id="Layer_1" xmlns="http://www.w3.org/2000/svg" xmlns:xlink="http://www.w3.org/1999/xlink" x="0px" y="0px"
	 width="36.42px" height="36.421px" viewBox="0 0 36.42 36.421" enable-background="new 0 0 36.42 36.421" xml:space="preserve">
<g>
	<circle fill="#4C4C4D" cx="18.21" cy="18.211" r="18.21"/>
	<g>
		<path fill="#FFFFFF" d="M16.828,9.492c1.264,0,2.288,1.022,2.288,2.284c0,1.263-1.024,2.285-2.288,2.285s-2.288-1.022-2.288-2.285
			C14.54,10.515,15.564,9.492,16.828,9.492z"/>
		<path fill="#FFFFFF" d="M22.599,10.386c0.019-1.222-1.875-1.22-1.894,0c-0.016,1.078-0.296,3.428-1.462,4.082
			c-1.033-0.41-2.154,0.285-2.462,1.193c-0.016,0.027-0.035,0.048-0.05,0.076c-0.299,0.567-0.676,1.031-1.113,1.457
			c-0.485-0.456-0.887-1.015-1.345-1.489c-0.356-0.37-0.797-0.345-1.127-0.131l-1.919-2.064c0.717-0.867,0.462-2.428-0.626-3.599
			c-1.156-1.244-2.82-1.585-3.71-0.76c-0.889,0.823-0.672,2.508,0.483,3.75c1.089,1.173,2.627,1.542,3.547,0.892l1.925,2.071
			c-0.234,0.334-0.276,0.799,0.089,1.177c0.736,0.763,1.346,1.606,2.244,2.197c0.379,0.249,0.828,0.113,1.148-0.147
			c0.493-0.399,0.937-0.833,1.324-1.314c0.645,1.126,0.59,3.244,0.49,4.414c-0.015,0.182-0.005,0.347,0.023,0.5
			c-0.549,1.365-0.49,2.814-1.464,4c-0.586,0.713-1.246,1.376-1.911,2.016c-0.882,0.848,0.459,2.183,1.338,1.337
			c0.735-0.707,1.443-1.445,2.09-2.234c0.976-1.188,1.108-2.539,1.524-3.9c0.122,0.002,0.246-0.005,0.368-0.025
			c0.291,2.254,0.307,4.471-0.893,6.513c-0.618,1.054,1.019,2.006,1.636,0.954c1.715-2.922,1.407-6.076,0.885-9.317
			c-0.005-0.033-0.017-0.062-0.025-0.093c0.127-1.893-0.034-4.452-1.11-6.169C22.045,14.564,22.572,12.179,22.599,10.386z
			 M7.537,12.748c-1.072-1.153-1.294-2.694-0.495-3.435c0.801-0.741,2.323-0.406,3.396,0.749c1.071,1.153,1.293,2.694,0.494,3.436
			C10.132,14.239,8.609,13.903,7.537,12.748z"/>
		<path fill="#FFFFFF" d="M22.856,5.618c0.469,0,0.848,0.379,0.848,0.847s-0.379,0.846-0.848,0.846
			c-0.468,0-0.847-0.378-0.847-0.846S22.388,5.618,22.856,5.618z"/>
	</g>
</g>
</svg>
