<?xml version="1.0" encoding="utf-8"?>
<!-- Generator: Adobe Illustrator 16.0.0, SVG Export Plug-In . SVG Version: 6.00 Build 0)  -->
<!DOCTYPE svg PUBLIC "-//W3C//DTD SVG 1.1//EN" "http://www.w3.org/Graphics/SVG/1.1/DTD/svg11.dtd">
<svg version="1.1" id="Layer_1" xmlns="http://www.w3.org/2000/svg" xmlns:xlink="http://www.w3.org/1999/xlink" x="0px" y="0px"
	 width="36.421px" height="36.421px" viewBox="0 0 36.421 36.421" enable-background="new 0 0 36.421 36.421" xml:space="preserve">
<g>
	<circle fill="#4C4C4D" cx="18.21" cy="18.211" r="18.21"/>
	<g>
		<path fill="#FFFFFF" d="M25.202,22.936v-0.342c0-0.488-0.395-0.885-0.882-0.885h-1.492v-5.844h0.595v-0.534h-2.879v0.534h0.594
			v5.844h-2.109v-5.844h0.596v-0.534h-2.88v0.534h0.595v5.844h-2.11v-5.844h0.596v-0.534h-2.88v0.534h0.595v5.844h-1.44
			c-0.486,0-0.882,0.396-0.882,0.885v0.342h-0.84v1.228h15.666v-1.228H25.202z"/>
		<path fill="#FFFFFF" d="M11.218,14.464H25.15v0.453H11.218V14.464z"/>
		<path fill="#FFFFFF" d="M11.218,13.504H25.15v0.453H11.218V13.504z"/>
		<path fill="#FFFFFF" d="M25.15,12.637l-7.015-2.908l-6.918,2.908v0.453H25.15V12.637z"/>
	</g>
</g>
</svg>
