<?xml version="1.0" encoding="utf-8"?>
<!-- Generator: Adobe Illustrator 16.0.0, SVG Export Plug-In . SVG Version: 6.00 Build 0)  -->
<!DOCTYPE svg PUBLIC "-//W3C//DTD SVG 1.1//EN" "http://www.w3.org/Graphics/SVG/1.1/DTD/svg11.dtd">
<svg version="1.1" id="Layer_1" xmlns="http://www.w3.org/2000/svg" xmlns:xlink="http://www.w3.org/1999/xlink" x="0px" y="0px"
	 width="36.421px" height="36.421px" viewBox="0 0 36.421 36.421" enable-background="new 0 0 36.421 36.421" xml:space="preserve">
<g>
	<circle fill="#4C4C4D" cx="18.21" cy="18.211" r="18.21"/>
	<g>
		<path fill="#FFFFFF" d="M8.62,28.056c0,0.586,0.475,1.061,1.061,1.061s1.061-0.475,1.061-1.061c0-0.007-0.001-0.013-0.001-0.019
			h-2.12C8.621,28.043,8.62,28.049,8.62,28.056z"/>
		<path fill="#FFFFFF" d="M25.679,28.056c0,0.586,0.475,1.061,1.061,1.061s1.061-0.475,1.061-1.061c0-0.007-0.001-0.013-0.001-0.019
			h-2.12C25.68,28.043,25.679,28.049,25.679,28.056z"/>
		<circle fill="#FFFFFF" cx="18.209" cy="7.348" r="1.909"/>
		<path fill="#FFFFFF" d="M18.027,16.125h0.97c-0.348-0.248-0.699-0.436-1.013-0.585c-0.039-0.56-0.001-1.145,0.072-1.715
			c0.222,0.087,0.466,0.136,0.722,0.136c0.006,0,0.012,0,0.019,0c0.674-0.004,1.393-0.277,2.248-0.832
			c0.314-0.205,0.402-0.625,0.198-0.939s-0.625-0.402-0.939-0.197c-0.728,0.477-1.234,0.615-1.506,0.611
			c-0.208-0.005-0.297-0.052-0.404-0.138c-0.03-0.024-0.06-0.058-0.09-0.096c0.058-0.292,0.116-0.569,0.166-0.821
			c0.243-0.845-0.075-1.855-0.799-2.036c-0.053-0.014-0.108-0.022-0.165-0.03c-0.068-0.031-0.143-0.052-0.221-0.06
			c-0.168-0.015-0.328,0.033-0.455,0.123c-0.282,0.087-0.563,0.248-0.807,0.497c0.189,0.001,0.366,0.007,0.522,0.015
			c0.317,0.016,0.546,0.04,0.605,0.047c0.393,0.047,0.69,0.354,0.742,0.727c0.007,0.046,0.01,0.093,0.008,0.141
			c0,0.025-0.001,0.051-0.005,0.076c-0.051,0.427-0.413,0.749-0.842,0.749c-0.034,0-0.067-0.003-0.102-0.006
			c-0.002,0-0.022-0.003-0.065-0.008c-0.047-0.004-0.117-0.011-0.203-0.018c-0.016,0-0.033-0.002-0.05-0.003
			c-0.158-0.011-0.381-0.022-0.623-0.022c-0.301,0-0.578,0.019-0.798,0.052c-0.036,0.132-0.07,0.262-0.101,0.389
			c0.193,0.224,0.53,0.559,1.109,1.016c0.178,0.141,0.291,0.342,0.317,0.566c0.026,0.226-0.037,0.447-0.177,0.626
			c-0.162,0.204-0.405,0.322-0.667,0.322c-0.19,0-0.376-0.065-0.526-0.184c-0.099-0.078-0.192-0.155-0.284-0.23
			c0.007,0.424,0.041,0.875,0.1,1.383c0.032,0.166,0.075,0.313,0.125,0.445h0.346H18.027z"/>
		<path fill="#FFFFFF" d="M15.694,14.541c0.201,0,0.399-0.089,0.534-0.259c0.232-0.294,0.182-0.721-0.112-0.953
			c-0.47-0.371-0.813-0.688-1.049-0.944c-0.071-0.078-0.133-0.15-0.185-0.217c-0.112-0.142-0.178-0.256-0.212-0.331
			c-0.01-0.022-0.017-0.042-0.022-0.058c0.068-0.037,0.222-0.103,0.424-0.136c0.061-0.012,0.125-0.021,0.191-0.029
			c0.235-0.031,0.5-0.044,0.748-0.044c0.221,0,0.427,0.01,0.592,0.021c0.032,0.002,0.064,0.004,0.092,0.006
			c0.088,0.007,0.159,0.014,0.207,0.018c0.048,0.005,0.069,0.008,0.069,0.008c0.372,0.044,0.71-0.222,0.755-0.594
			c0.044-0.372-0.222-0.71-0.594-0.755c-0.012-0.001-0.25-0.029-0.599-0.047c-0.156-0.008-0.333-0.014-0.523-0.014
			c-0.046,0-0.093,0.001-0.14,0.002c-0.451,0.008-0.951,0.044-1.421,0.185c-0.259,0.081-0.52,0.193-0.755,0.406
			c-0.236,0.205-0.422,0.563-0.415,0.93c0.007,0.463,0.214,0.857,0.535,1.271c0.258,0.328,0.607,0.677,1.069,1.068
			c0.122,0.104,0.251,0.21,0.391,0.32C15.398,14.493,15.547,14.541,15.694,14.541z"/>
		<path fill="#FFFFFF" d="M13.21,25.149c0.145,0.067,0.297,0.1,0.447,0.1c0.4,0,0.783-0.228,0.962-0.613
			c1.457-3.128,2.266-5.667,2.657-7.08c0.099,0.053,0.199,0.108,0.297,0.17c0.293,0.181,0.555,0.4,0.715,0.613
			c0.161,0.219,0.229,0.396,0.232,0.632c0,0.188-0.05,0.444-0.248,0.809c-0.198,0.362-0.548,0.821-1.109,1.354
			c-0.425,0.403-0.442,1.075-0.039,1.5c0.403,0.425,1.075,0.442,1.5,0.038c0.678-0.645,1.172-1.259,1.509-1.872
			c0.335-0.61,0.51-1.231,0.509-1.828c0.003-0.632-0.198-1.2-0.485-1.658H15.14c-0.396,1.372-1.152,3.655-2.443,6.427
			C12.449,24.271,12.679,24.902,13.21,25.149z"/>
		<path fill="#FFFFFF" d="M6.699,27.867h1.939h2.086h14.972h2.086h1.939c0.141,0,0.255-0.114,0.255-0.255v-1.781
			c0-0.142-0.114-0.255-0.255-0.255h-1.103L25.244,14.95c-0.027-0.085-0.099-0.143-0.183-0.161l2.104-2.574
			c0.042-0.052,0.035-0.129-0.017-0.171l-0.5-0.408c-0.052-0.043-0.128-0.035-0.17,0.017l-3.793,4.643h-3.463h-1.197h-2.611h-0.23
			h-3.223c-1.172,0-2.122,0.949-2.122,2.122v7.159h-3.14c-0.141,0-0.254,0.113-0.254,0.255v1.781
			C6.444,27.753,6.558,27.867,6.699,27.867z M15.188,17.144h1.201h1.058h2.595h3.939l2.679,8.433H10.688v-7.159
			c0.001-0.704,0.57-1.272,1.273-1.273H15.188z"/>
	</g>
</g>
</svg>
