<?xml version="1.0" encoding="utf-8"?>
<!-- Generator: Adobe Illustrator 16.0.0, SVG Export Plug-In . SVG Version: 6.00 Build 0)  -->
<!DOCTYPE svg PUBLIC "-//W3C//DTD SVG 1.1//EN" "http://www.w3.org/Graphics/SVG/1.1/DTD/svg11.dtd">
<svg version="1.1" id="Layer_1" xmlns="http://www.w3.org/2000/svg" xmlns:xlink="http://www.w3.org/1999/xlink" x="0px" y="0px"
	 width="5.334px" height="11.96px" viewBox="0 0 5.334 11.96" enable-background="new 0 0 5.334 11.96" xml:space="preserve">
<g>
	<path fill="#353535" d="M4.502,1.632V0.358C4.502,0.16,4.315,0,4.085,0C3.855,0,3.668,0.16,3.668,0.358v1.259H0.959
		c-0.11,0-0.216,0.021-0.315,0.059C0.27,1.817,0,2.2,0,2.652v8.273c0,0.572,0.43,1.035,0.959,1.035h3.417
		c0.053,0,0.104-0.006,0.154-0.015c0.457-0.081,0.805-0.506,0.805-1.021V2.652C5.334,2.127,4.971,1.698,4.502,1.632z M1.666,10.214
		c0,0.088-0.066,0.159-0.148,0.159H0.98c-0.082,0-0.147-0.071-0.147-0.159V9.796c0-0.088,0.065-0.158,0.147-0.158h0.537
		c0.082,0,0.148,0.07,0.148,0.158V10.214z M1.666,9.034c0,0.088-0.066,0.158-0.148,0.158H0.98c-0.082,0-0.147-0.07-0.147-0.158
		V8.616c0-0.088,0.065-0.159,0.147-0.159h0.537c0.082,0,0.148,0.071,0.148,0.159V9.034z M1.666,7.854
		c0,0.088-0.066,0.159-0.148,0.159H0.98c-0.082,0-0.147-0.071-0.147-0.159V7.437c0-0.088,0.065-0.158,0.147-0.158h0.537
		c0.082,0,0.148,0.07,0.148,0.158V7.854z M3.084,10.214c0,0.088-0.066,0.159-0.147,0.159H2.398c-0.081,0-0.148-0.071-0.148-0.159
		V9.796c0-0.088,0.067-0.158,0.148-0.158h0.538c0.081,0,0.147,0.07,0.147,0.158V10.214z M3.084,9.034
		c0,0.088-0.066,0.158-0.147,0.158H2.398c-0.081,0-0.148-0.07-0.148-0.158V8.616c0-0.088,0.067-0.159,0.148-0.159h0.538
		c0.081,0,0.147,0.071,0.147,0.159V9.034z M3.084,7.854c0,0.088-0.066,0.159-0.147,0.159H2.398c-0.081,0-0.148-0.071-0.148-0.159
		V7.437c0-0.088,0.067-0.158,0.148-0.158h0.538c0.081,0,0.147,0.07,0.147,0.158V7.854z M4.502,10.214
		c0,0.088-0.066,0.159-0.148,0.159H3.816c-0.082,0-0.148-0.071-0.148-0.159V9.796c0-0.088,0.066-0.158,0.148-0.158h0.538
		c0.082,0,0.148,0.07,0.148,0.158V10.214z M4.502,9.034c0,0.088-0.066,0.158-0.148,0.158H3.816c-0.082,0-0.148-0.07-0.148-0.158
		V8.616c0-0.088,0.066-0.159,0.148-0.159h0.538c0.082,0,0.148,0.071,0.148,0.159V9.034z M4.502,7.854
		c0,0.088-0.066,0.159-0.148,0.159H3.816c-0.082,0-0.148-0.071-0.148-0.159V7.437c0-0.088,0.066-0.158,0.148-0.158h0.538
		c0.082,0,0.148,0.07,0.148,0.158V7.854z M4.579,5.228c0,0.297-0.203,0.54-0.456,0.54H2.596H1.211c-0.252,0-0.455-0.242-0.455-0.54
		v-1.97c0-0.298,0.203-0.539,0.455-0.539h0.016h2.896c0.252,0,0.456,0.241,0.456,0.539V5.228z"/>
</g>
</svg>
