<?xml version="1.0" encoding="utf-8"?>
<!-- Generator: Adobe Illustrator 16.0.0, SVG Export Plug-In . SVG Version: 6.00 Build 0)  -->
<!DOCTYPE svg PUBLIC "-//W3C//DTD SVG 1.1//EN" "http://www.w3.org/Graphics/SVG/1.1/DTD/svg11.dtd">
<svg version="1.1" id="Layer_1" xmlns="http://www.w3.org/2000/svg" xmlns:xlink="http://www.w3.org/1999/xlink" x="0px" y="0px"
	 width="20.486px" height="20.485px" viewBox="0 0 20.486 20.485" enable-background="new 0 0 20.486 20.485" xml:space="preserve">
<g>
	<path fill="#E7223E" d="M10.243,0C4.586,0,0,4.586,0,10.243c0,5.657,4.586,10.243,10.243,10.243s10.243-4.586,10.243-10.243
		C20.486,4.586,15.9,0,10.243,0z M15.365,11.523H5.122V8.962h10.243V11.523z"/>
</g>
</svg>
