<?xml version="1.0" encoding="utf-8"?>
<!-- Generator: Adobe Illustrator 16.0.0, SVG Export Plug-In . SVG Version: 6.00 Build 0)  -->
<!DOCTYPE svg PUBLIC "-//W3C//DTD SVG 1.1//EN" "http://www.w3.org/Graphics/SVG/1.1/DTD/svg11.dtd">
<svg version="1.1" id="Layer_1" xmlns="http://www.w3.org/2000/svg" xmlns:xlink="http://www.w3.org/1999/xlink" x="0px" y="0px"
	 width="10.352px" height="10.352px" viewBox="0 0 10.352 10.352" enable-background="new 0 0 10.352 10.352" xml:space="preserve">
<g>
	<path fill="#353535" d="M9.919,5.925c0.038-0.245,0.06-0.495,0.06-0.75c0-2.653-2.15-4.803-4.803-4.803
		c-0.256,0-0.506,0.021-0.75,0.059C3.983,0.158,3.461,0,2.902,0C1.299,0,0,1.299,0,2.902c0,0.559,0.158,1.081,0.432,1.524
		C0.394,4.671,0.373,4.92,0.373,5.176c0,2.652,2.15,4.803,4.802,4.803c0.255,0,0.506-0.02,0.75-0.059
		c0.442,0.273,0.964,0.432,1.524,0.432c1.603,0,2.902-1.299,2.902-2.902C10.352,6.89,10.193,6.368,9.919,5.925z M7.455,7.359
		C7.252,7.652,6.953,7.881,6.564,8.045C6.173,8.21,5.711,8.292,5.178,8.292c-0.639,0-1.168-0.112-1.586-0.338
		C3.295,7.793,3.055,7.576,2.869,7.305C2.684,7.034,2.59,6.77,2.59,6.51c0-0.152,0.059-0.285,0.172-0.393
		c0.113-0.109,0.262-0.164,0.436-0.164c0.143,0,0.264,0.043,0.363,0.128s0.183,0.208,0.25,0.372C3.893,6.643,3.98,6.8,4.074,6.926
		C4.168,7.051,4.299,7.154,4.47,7.236c0.169,0.081,0.393,0.121,0.673,0.121c0.384,0,0.693-0.082,0.932-0.246
		c0.238-0.165,0.353-0.366,0.353-0.609c0-0.194-0.062-0.348-0.188-0.468C6.11,5.913,5.945,5.82,5.74,5.756
		C5.535,5.69,5.259,5.621,4.912,5.548C4.447,5.447,4.06,5.329,3.744,5.193C3.43,5.057,3.179,4.871,2.992,4.636
		C2.807,4.399,2.713,4.104,2.713,3.755c0-0.333,0.098-0.631,0.295-0.89c0.196-0.26,0.48-0.459,0.851-0.598
		C4.228,2.128,4.662,2.059,5.16,2.059c0.398,0,0.742,0.046,1.033,0.138C6.484,2.289,6.727,2.411,6.92,2.564
		c0.193,0.152,0.335,0.313,0.425,0.482c0.089,0.169,0.135,0.335,0.135,0.497c0,0.15-0.058,0.286-0.172,0.405
		c-0.113,0.12-0.259,0.18-0.427,0.18c-0.153,0-0.273-0.035-0.355-0.11C6.443,3.946,6.359,3.831,6.268,3.671
		C6.15,3.448,6.012,3.273,5.85,3.149C5.693,3.027,5.434,2.963,5.071,2.964c-0.335,0-0.603,0.068-0.804,0.202
		C4.064,3.302,3.967,3.46,3.967,3.645c0,0.116,0.033,0.213,0.1,0.296C4.135,4.025,4.229,4.098,4.352,4.16
		c0.121,0.063,0.244,0.111,0.369,0.146C4.846,4.341,5.055,4.393,5.346,4.46c0.363,0.079,0.693,0.166,0.989,0.262
		s0.548,0.211,0.757,0.349c0.211,0.138,0.375,0.313,0.492,0.524c0.118,0.212,0.177,0.471,0.177,0.775
		C7.762,6.738,7.659,7.068,7.455,7.359z"/>
</g>
</svg>
